\relax 
\providecommand\hyper@newdestlabel[2]{}
\catcode `"\active 
\catcode `<\active 
\catcode `>\active 
\@nameuse{es@quoting}
\catcode `'\active 
\providecommand\HyperFirstAtBeginDocument{\AtBeginDocument}
\HyperFirstAtBeginDocument{\ifx\hyper@anchor\@undefined
\global\let\oldcontentsline\contentsline
\gdef\contentsline#1#2#3#4{\oldcontentsline{#1}{#2}{#3}}
\global\let\oldnewlabel\newlabel
\gdef\newlabel#1#2{\newlabelxx{#1}#2}
\gdef\newlabelxx#1#2#3#4#5#6{\oldnewlabel{#1}{{#2}{#3}}}
\AtEndDocument{\ifx\hyper@anchor\@undefined
\let\contentsline\oldcontentsline
\let\newlabel\oldnewlabel
\fi}
\fi}
\global\let\hyper@last\relax 
\gdef\HyperFirstAtBeginDocument#1{#1}
\providecommand\HyField@AuxAddToFields[1]{}
\providecommand\HyField@AuxAddToCoFields[2]{}
\providecommand \oddpage@label [2]{}
\babel@aux{spanish}{}
\@writefile{toc}{\contentsline {chapter}{\numberline {1}Introducci\IeC {\'o}n}{1}{chapter.1}}
\@writefile{lof}{\addvspace {10\p@ }}
\@writefile{lot}{\addvspace {10\p@ }}
\@writefile{toc}{\contentsline {section}{\numberline {1.1}Objetivo}{1}{section.1.1}}
\@writefile{toc}{\contentsline {section}{\numberline {1.2}Introducci\IeC {\'o}n}{1}{section.1.2}}
\@writefile{toc}{\contentsline {section}{\numberline {1.3}Consignas}{1}{section.1.3}}
\@writefile{toc}{\contentsline {chapter}{\numberline {2}Desarrollo}{5}{chapter.2}}
\@writefile{lof}{\addvspace {10\p@ }}
\@writefile{lot}{\addvspace {10\p@ }}
\@writefile{toc}{\contentsline {section}{\numberline {2.1}Problemas 1 al 6}{5}{section.2.1}}
\@writefile{toc}{\contentsline {subsection}{Entradas y salidas}{5}{section*.2}}
\@writefile{toc}{\contentsline {subsection}{Diagrama}{6}{section*.3}}
\@writefile{toc}{\contentsline {section}{\numberline {2.2}Problema 7}{7}{section.2.2}}
\@writefile{toc}{\contentsline {subsection}{Demostraci\IeC {\'o}n mediante circuitos equivalentes}{7}{section*.4}}
\@writefile{toc}{\contentsline {subsection}{Demostraci\IeC {\'o}n en forma anal\IeC {\'\i }tica}{7}{section*.5}}
\@writefile{toc}{\contentsline {section}{\numberline {2.3}Problema 8}{8}{section.2.3}}
\@writefile{toc}{\contentsline {subsection}{Entradas y salidas}{8}{section*.6}}
\@writefile{toc}{\contentsline {subsection}{Diagrama}{8}{section*.7}}
\@writefile{toc}{\contentsline {section}{\numberline {2.4}Problema 9}{9}{section.2.4}}
\@writefile{toc}{\contentsline {subsection}{Entradas y salidas}{9}{section*.8}}
\@writefile{toc}{\contentsline {subsection}{Diagrama}{9}{section*.9}}
\@writefile{toc}{\contentsline {section}{\numberline {2.5}Problema 10}{9}{section.2.5}}
\@writefile{toc}{\contentsline {subsection}{Entradas y salidas}{9}{section*.10}}
\@writefile{toc}{\contentsline {subsection}{Diagrama}{9}{section*.11}}
\@writefile{toc}{\contentsline {section}{\numberline {2.6}Problema 11}{10}{section.2.6}}
\@writefile{toc}{\contentsline {subsection}{Entradas y salidas}{10}{section*.12}}
\@writefile{toc}{\contentsline {subsection}{Diagrama}{10}{section*.13}}
\@writefile{toc}{\contentsline {section}{\numberline {2.7}Problema 12}{10}{section.2.7}}
\@writefile{toc}{\contentsline {subsection}{Entradas y salidas}{10}{section*.14}}
\@writefile{toc}{\contentsline {subsection}{Diagrama}{10}{section*.15}}
\@writefile{toc}{\contentsline {section}{\numberline {2.8}Problema 13}{10}{section.2.8}}
\@writefile{toc}{\contentsline {subsection}{Entradas y salidas}{10}{section*.16}}
\@writefile{toc}{\contentsline {subsection}{Diagrama}{11}{section*.17}}
\@writefile{toc}{\contentsline {section}{\numberline {2.9}Problema 14}{11}{section.2.9}}
\@writefile{toc}{\contentsline {subsection}{Entradas y salidas}{11}{section*.18}}
\@writefile{toc}{\contentsline {subsection}{Diagrama}{12}{section*.19}}
\@writefile{toc}{\contentsline {section}{\numberline {2.10}Problema 15}{12}{section.2.10}}
\@writefile{toc}{\contentsline {subsection}{Entradas y salidas}{12}{section*.20}}
\@writefile{toc}{\contentsline {subsection}{Diagrama}{13}{section*.21}}
\@writefile{toc}{\contentsline {section}{\numberline {2.11}Problema 16}{14}{section.2.11}}
\@writefile{toc}{\contentsline {subsection}{Entradas y salidas}{14}{section*.22}}
\@writefile{toc}{\contentsline {subsection}{Diagrama}{14}{section*.23}}
\@writefile{toc}{\contentsline {section}{\numberline {2.12}Problema 17}{15}{section.2.12}}
\@writefile{toc}{\contentsline {subsection}{Entradas y salidas}{15}{section*.24}}
\@writefile{toc}{\contentsline {subsection}{Diagrama}{16}{section*.25}}
\@writefile{toc}{\contentsline {chapter}{\numberline {3}Conclusi\IeC {\'o}n}{17}{chapter.3}}
\@writefile{lof}{\addvspace {10\p@ }}
\@writefile{lot}{\addvspace {10\p@ }}
