\relax 
\providecommand\hyper@newdestlabel[2]{}
\catcode `"\active 
\catcode `<\active 
\catcode `>\active 
\@nameuse{es@quoting}
\catcode `'\active 
\providecommand\HyperFirstAtBeginDocument{\AtBeginDocument}
\HyperFirstAtBeginDocument{\ifx\hyper@anchor\@undefined
\global\let\oldcontentsline\contentsline
\gdef\contentsline#1#2#3#4{\oldcontentsline{#1}{#2}{#3}}
\global\let\oldnewlabel\newlabel
\gdef\newlabel#1#2{\newlabelxx{#1}#2}
\gdef\newlabelxx#1#2#3#4#5#6{\oldnewlabel{#1}{{#2}{#3}}}
\AtEndDocument{\ifx\hyper@anchor\@undefined
\let\contentsline\oldcontentsline
\let\newlabel\oldnewlabel
\fi}
\fi}
\global\let\hyper@last\relax 
\gdef\HyperFirstAtBeginDocument#1{#1}
\providecommand\HyField@AuxAddToFields[1]{}
\providecommand\HyField@AuxAddToCoFields[2]{}
\providecommand \oddpage@label [2]{}
\babel@aux{spanish}{}
\@writefile{toc}{\contentsline {chapter}{\numberline {1}Introducci\IeC {\'o}n}{2}{chapter.1}}
\@writefile{lof}{\addvspace {10\p@ }}
\@writefile{lot}{\addvspace {10\p@ }}
\@writefile{toc}{\contentsline {section}{\numberline {1.1}Objetivo}{2}{section.1.1}}
\@writefile{toc}{\contentsline {section}{\numberline {1.2}M\IeC {\'e}todos de Desarrollo}{2}{section.1.2}}
\@writefile{toc}{\contentsline {subsection}{Microchip PIC / Atmel AVR}{2}{section*.2}}
\@writefile{toc}{\contentsline {subsection}{OpenPLC + Raspberry PI / Arduino}{2}{section*.3}}
\@writefile{toc}{\contentsline {section}{\numberline {1.3}Requisitos del PLC}{2}{section.1.3}}
\@writefile{toc}{\contentsline {chapter}{\numberline {2}Desarrollo}{3}{chapter.2}}
\@writefile{lof}{\addvspace {10\p@ }}
\@writefile{lot}{\addvspace {10\p@ }}
\@writefile{toc}{\contentsline {section}{\numberline {2.1}Dise\IeC {\~n}o}{3}{section.2.1}}
\@writefile{toc}{\contentsline {subsection}{Circuito de entrada}{3}{section*.4}}
\@writefile{toc}{\contentsline {subsection}{Circuito de salida}{3}{section*.6}}
\@writefile{lof}{\contentsline {figure}{\numberline {2.1}{\ignorespaces Circuito Impreso de la placa\relax }}{4}{figure.caption.5}}
\providecommand*\caption@xref[2]{\@setref\relax\@undefined{#1}}
\newlabel{pcbEntrada}{{2.1}{4}{Circuito Impreso de la placa\relax }{figure.caption.5}{}}
\@writefile{toc}{\contentsline {subsection}{Limitaciones}{4}{section*.7}}
\@writefile{toc}{\contentsline {section}{\numberline {2.2}Software}{4}{section.2.2}}
\@writefile{toc}{\contentsline {section}{\numberline {2.3}Esquem\IeC {\'a}ticos}{5}{section.2.3}}
\@writefile{lof}{\contentsline {figure}{\numberline {2.2}{\ignorespaces Circuito de salida del PLC\relax }}{5}{figure.caption.8}}
\newlabel{esquematicoSalida}{{2.2}{5}{Circuito de salida del PLC\relax }{figure.caption.8}{}}
\@writefile{lof}{\contentsline {figure}{\numberline {2.3}{\ignorespaces Circuito de entrada del PLC\relax }}{6}{figure.caption.9}}
\newlabel{esquematicoEntrada}{{2.3}{6}{Circuito de entrada del PLC\relax }{figure.caption.9}{}}
\@writefile{toc}{\contentsline {chapter}{\numberline {3}Conclusiones}{7}{chapter.3}}
\@writefile{lof}{\addvspace {10\p@ }}
\@writefile{lot}{\addvspace {10\p@ }}
\@writefile{toc}{\contentsline {section}{\numberline {3.1}Inconvenientes}{7}{section.3.1}}
\@writefile{toc}{\contentsline {section}{\numberline {3.2}Conclusion Final}{7}{section.3.2}}
\@writefile{lof}{\contentsline {figure}{\numberline {3.1}{\ignorespaces Circuito armado y conectado\relax }}{8}{figure.caption.10}}
\newlabel{foto}{{3.1}{8}{Circuito armado y conectado\relax }{figure.caption.10}{}}
